…
### Problem 2

First, we import the data.

``` r
homicides_df = read_csv("data/homicide-data.csv") 

homicides_df
```

    ## # A tibble: 52,179 × 12
    ##    uid   repor…¹ victi…² victi…³ victi…⁴ victi…⁵ victi…⁶ city  state   lat   lon
    ##    <chr>   <dbl> <chr>   <chr>   <chr>   <chr>   <chr>   <chr> <chr> <dbl> <dbl>
    ##  1 Alb-…  2.01e7 GARCIA  JUAN    Hispan… 78      Male    Albu… NM     35.1 -107.
    ##  2 Alb-…  2.01e7 MONTOYA CAMERON Hispan… 17      Male    Albu… NM     35.1 -107.
    ##  3 Alb-…  2.01e7 SATTER… VIVIANA White   15      Female  Albu… NM     35.1 -107.
    ##  4 Alb-…  2.01e7 MENDIO… CARLOS  Hispan… 32      Male    Albu… NM     35.1 -107.
    ##  5 Alb-…  2.01e7 MULA    VIVIAN  White   72      Female  Albu… NM     35.1 -107.
    ##  6 Alb-…  2.01e7 BOOK    GERALD… White   91      Female  Albu… NM     35.2 -107.
    ##  7 Alb-…  2.01e7 MALDON… DAVID   Hispan… 52      Male    Albu… NM     35.1 -107.
    ##  8 Alb-…  2.01e7 MALDON… CONNIE  Hispan… 52      Female  Albu… NM     35.1 -107.
    ##  9 Alb-…  2.01e7 MARTIN… GUSTAVO White   56      Male    Albu… NM     35.1 -107.
    ## 10 Alb-…  2.01e7 HERRERA ISRAEL  Hispan… 43      Male    Albu… NM     35.1 -107.
    ## # … with 52,169 more rows, 1 more variable: disposition <chr>, and abbreviated
    ## #   variable names ¹​reported_date, ²​victim_last, ³​victim_first, ⁴​victim_race,
    ## #   ⁵​victim_age, ⁶​victim_sex
…
homicides_df
```

    ## # A tibble: 39,403 × 14
    ##    uid   repor…¹ victi…² victi…³ victi…⁴ victi…⁵ victi…⁶ city  state   lat   lon
    ##    <chr>   <dbl> <chr>   <chr>   <fct>     <dbl> <fct>   <chr> <chr> <dbl> <dbl>
    ##  1 Alb-…  2.01e7 SATTER… VIVIANA White        15 Female  Albu… NM     35.1 -107.
    ##  2 Alb-…  2.01e7 MULA    VIVIAN  White        72 Female  Albu… NM     35.1 -107.
    ##  3 Alb-…  2.01e7 BOOK    GERALD… White        91 Female  Albu… NM     35.2 -107.
    ##  4 Alb-…  2.01e7 MARTIN… GUSTAVO White        56 Male    Albu… NM     35.1 -107.
    ##  5 Alb-…  2.01e7 GRAY    STEFAN… White        43 Female  Albu… NM     35.1 -107.
    ##  6 Alb-…  2.01e7 DAVID   LARRY   White        52 Male    Albu… NM     NA     NA 
    ##  7 Alb-…  2.01e7 BRITO   ELIZAB… White        22 Female  Albu… NM     35.1 -107.
    ##  8 Alb-…  2.01e7 KING    TEVION  Black        15 Male    Albu… NM     35.1 -107.
    ##  9 Alb-…  2.01e7 BOYKIN  CEDRIC  Black        25 Male    Albu… NM     35.1 -107.
    ## 10 Alb-…  2.01e7 BARRAG… MIGUEL  White        20 Male    Albu… NM     35.1 -107.
    ## # … with 39,393 more rows, 3 more variables: disposition <chr>,
    ## #   city_state <chr>, whether_solved <dbl>, and abbreviated variable names
    ## #   ¹​reported_date, ²​victim_last, ³​victim_first, ⁴​victim_race, ⁵​victim_age,
    ## #   ⁶​victim_sex
…
logistic_df = 
  homicides_df %>% 
  select(city_state,victim_age, victim_race, victim_sex, whether_solved) %>% 
  nest(demographics = victim_age:whether_solved) %>% 
  mutate(
    logistic_fit = purrr::map(demographics, logistic_function)
  ) %>% 
  select(-demographics) %>% 
  unnest(logistic_fit)

logistic_df
```

    ## # A tibble: 47 × 4
    ##    city_state         OR lower upper
    ##    <chr>           <dbl> <dbl> <dbl>
    ##  1 Albuquerque, NM 1.77  0.825 3.76 
    ##  2 Atlanta, GA     1.00  0.680 1.46 
    ##  3 Baltimore, MD   0.426 0.324 0.558
    ##  4 Baton Rouge, LA 0.381 0.204 0.684
    ##  5 Birmingham, AL  0.870 0.571 1.31 
    ##  6 Boston, MA      0.674 0.353 1.28 
    ##  7 Buffalo, NY     0.521 0.288 0.936
    ##  8 Charlotte, NC   0.884 0.551 1.39 
    ##  9 Chicago, IL     0.410 0.336 0.501
    ## 10 Cincinnati, OH  0.400 0.231 0.667
    ## # … with 37 more rows
…
``` r
bw_df = 
  read_csv("data/birthweight.csv") %>% 
  mutate(
     babysex = factor(babysex,levels = c(1, 2),labels = c("Male", "Female")),
         frace = factor(frace, levels = c(1, 2, 3, 4, 8, 9),labels = c("White", "Black", "Asian", "Puerto Rican", "Other", "Unknown")), 
         malform = factor(malform,levels = c(0, 1),labels = c("Absent", "Present")),
         mrace = factor(mrace,levels = c(1, 2, 3, 4, 8),labels = c("White", "Black", "Asian", "Puerto Rican", "Other"))
  ) %>% 
  na.omit() 

bw_df
```

    ## # A tibble: 4,342 × 20
    ##    babysex bhead blength   bwt delwt fincome frace gaweeks malform menarche
    ##    <fct>   <dbl>   <dbl> <dbl> <dbl>   <dbl> <fct>   <dbl> <fct>      <dbl>
    ##  1 Female     34      51  3629   177      35 White    39.9 Absent        13
    ##  2 Male       34      48  3062   156      65 Black    25.9 Absent        14
    ##  3 Female     36      50  3345   148      85 White    39.9 Absent        12
    ##  4 Male       34      52  3062   157      55 White    40   Absent        14
    ##  5 Female     34      52  3374   156       5 White    41.6 Absent        13
    ##  6 Male       33      52  3374   129      55 White    40.7 Absent        12
    ##  7 Female     33      46  2523   126      96 Black    40.3 Absent        14
    ##  8 Female     33      49  2778   140       5 White    37.4 Absent        12
    ##  9 Male       36      52  3515   146      85 White    40.3 Absent        11
    ## 10 Male       33      50  3459   169      75 Black    40.7 Absent        12
    ## # … with 4,332 more rows, and 10 more variables: mheight <dbl>, momage <dbl>,
    ## #   mrace <fct>, parity <dbl>, pnumlbw <dbl>, pnumsga <dbl>, ppbmi <dbl>,
    ## #   ppwt <dbl>, smoken <dbl>, wtgain <dbl>
…
